20

1 25
2
t 0 10 s
t 0 5 s
39 3

29 7
5
t 3 1 n
h 17 0 s
f 18 0 e
f 7 0 s
r 11 3 s
45 1

10 29
3
h 3 23 w
h 2 21 n
f 1 10 n
4 2

33 7
6
f 12 4 w
r 16 6 w
f 14 6 n
t 9 5 e
f 16 5 e
t 11 4 w
12 3

39 22
14
r 11 1 n
r 25 13 s
h 27 5 w
r 25 6 e
t 9 6 e
h 31 7 n
r 2 19 n
t 13 19 e
t 12 6 n
f 6 10 n
r 16 5 e
t 0 8 w
r 37 1 w
f 5 2 e
26 2

23 5
7
h 6 2 e
h 13 4 n
h 0 4 w
r 17 0 w
h 6 1 w
t 17 2 w
h 16 4 e
29 3

9 36
20
t 4 0 e
r 4 12 s
t 5 7 e
t 5 13 w
r 3 13 w
h 5 10 w
t 4 18 n
r 8 6 e
h 8 21 n
r 4 30 n
f 8 30 n
f 6 26 e
h 3 21 w
r 8 8 w
h 0 10 w
r 3 33 e
r 1 20 s
h 2 31 w
h 3 5 e
t 8 7 n
15 4

3 6
18
r 0 1 s
t 2 4 e
h 1 2 n
t 0 4 n
f 2 1 e
r 0 0 s
f 1 5 n
f 1 1 s
r 0 3 s
t 2 0 e
r 1 4 e
t 2 3 s
f 0 2 e
r 0 5 w
h 2 2 w
t 1 0 e
f 2 5 w
r 1 3 e
27 5

33 38
3
f 17 18 s
h 7 34 n
t 5 6 e
10 3

15 22
9
f 10 21 w
f 6 11 s
h 3 18 n
t 9 15 e
t 3 3 w
h 1 16 s
r 1 0 e
r 7 21 w
f 1 3 n
5 3

31 25
8
h 4 4 s
f 22 18 w
f 5 21 s
f 17 19 e
r 18 6 w
h 27 19 n
h 16 8 e
t 1 3 s
2 3

26 33
18
h 11 7 w
f 10 5 e
r 19 8 n
h 9 29 e
f 13 17 s
r 14 4 e
f 25 19 n
t 19 7 n
h 18 0 w
f 15 26 n
h 16 14 w
h 13 32 w
t 23 12 n
t 11 5 w
r 1 0 s
f 17 18 e
f 7 11 e
t 8 11 e
30 2

37 33
11
h 7 1 w
f 1 9 s
r 12 29 w
h 5 27 n
r 14 10 s
f 20 29 w
r 17 25 n
f 23 2 w
h 7 25 w
r 14 28 n
h 28 14 n
42 5

15 11
2
f 2 9 e
t 13 4 n
41 1

28 15
5
f 18 1 w
r 25 9 n
r 13 10 e
h 4 6 w
t 8 6 n
49 4

38 7
11
h 28 1 w
f 24 6 s
f 11 6 n
f 16 2 w
r 36 3 n
r 23 2 n
f 11 5 s
h 23 5 e
f 22 3 n
f 1 3 w
h 9 4 s
38 2

1 31
17
f 0 1 e
f 0 30 n
r 0 20 n
r 0 4 n
t 0 26 e
h 0 16 w
f 0 0 e
r 0 10 n
r 0 28 n
f 0 12 w
f 0 15 s
h 0 21 w
t 0 5 e
t 0 18 w
t 0 8 e
t 0 11 e
r 0 17 n
37 4

24 2
11
h 0 1 e
f 12 1 n
f 18 1 n
h 16 0 s
f 22 1 n
t 18 0 n
r 5 1 e
f 8 0 n
f 3 0 w
f 4 1 n
h 16 1 e
34 1

26 3
20
f 12 1 e
r 4 0 e
h 3 1 e
f 17 0 n
f 9 2 s
t 8 0 s
h 2 2 s
f 15 2 e
h 20 1 n
h 3 0 w
h 19 2 s
f 2 1 e
r 23 2 n
t 12 2 e
f 3 2 w
t 4 1 s
h 5 2 e
f 9 0 w
r 8 1 n
f 18 2 s
30 1

31 30
1
f 2 17 w
11 3
