29

14 17
12
f 0 0 n
f 1 0 e
r 2 2 e
r 3 2 n
r 4 2 e
r 5 2 e
t 6 3 e
h 7 1 w
t 8 3 s
f 9 0 e
t 10 3 s
f 11 0 w
626 195

6 7
2
h 0 1 n
t 1 3 n
525 85

9 14
5
f 0 0 w
t 1 3 s
f 2 0 n
f 3 0 s
h 4 1 s
251 146

8 3
2
t 0 0 n
f 1 0 w
915 146

14 20
10
t 0 3 e
t 1 3 e
r 2 2 w
f 3 0 s
f 4 0 s
t 5 3 w
f 6 0 n
r 7 2 e
r 8 2 n
f 9 0 w
1639 66

3 6
2
f 0 0 w
f 1 0 e
947 87

12 1
1
r 0 0 w
1168 145

17 3
1
t 0 0 n
584 104

17 15
10
r 0 2 w
t 1 3 e
t 2 3 w
h 3 1 e
r 4 2 n
h 5 1 n
f 6 0 s
f 7 0 w
h 8 1 w
f 9 0 e
1647 181

10 2
2
t 0 1 e
h 1 1 n
1946 180

16 6
5
h 0 1 s
h 1 1 w
f 2 0 e
r 3 2 s
r 4 2 e
726 64

2 4
2
h 0 1 e
h 1 1 w
419 84

15 12
10
h 0 1 w
h 1 1 n
h 2 1 s
f 3 0 n
r 4 2 w
t 5 3 w
h 6 1 w
t 7 3 e
t 8 3 n
r 9 2 w
1813 135

11 10
4
h 0 1 s
f 1 0 s
h 2 1 s
f 3 0 w
1340 114

2 10
2
r 0 2 s
r 1 2 n
87 82

10 14
2
t 0 3 s
r 1 2 w
661 141

12 9
6
h 0 1 e
f 1 0 w
r 2 2 e
f 3 0 n
h 4 1 s
t 5 3 e
1481 79

19 19
14
r 0 2 n
h 1 1 s
r 2 2 s
f 3 0 w
h 4 1 w
f 5 0 e
f 6 0 s
t 7 3 w
r 8 2 n
t 9 3 e
r 10 2 s
t 11 3 e
t 12 3 n
t 13 3 n
592 76

3 2
1
f 0 0 w
1877 118

18 10
5
h 0 1 e
t 1 3 n
f 2 0 w
f 3 0 n
h 4 1 e
480 81

2 20
1
t 0 3 n
646 166

1 4
1
h 0 1 w
1119 56

4 12
1
h 0 1 e
1005 75

19 18
6
f 0 0 n
r 1 2 s
h 2 1 w
r 3 2 w
r 4 2 w
r 5 2 w
1672 198

15 18
13
f 0 0 w
h 1 1 s
t 2 3 s
r 3 2 e
h 4 1 e
h 5 1 w
r 6 2 w
h 7 1 e
r 8 2 n
h 9 1 n
t 10 3 w
h 11 1 e
f 12 0 e
575 129

20 20
16
r 0 2 w
r 1 2 e
t 2 3 w
f 3 0 e
h 4 1 n
r 5 2 e
r 6 2 n
r 7 2 n
r 8 2 n
h 9 1 s
r 10 2 w
f 11 0 w
t 12 3 s
t 13 3 w
t 14 3 w
h 15 1 n
322 199

10 14
2
r 0 2 n
h 1 1 n
1645 114

19 9
4
t 0 3 s
f 1 0 e
h 2 1 e
t 3 3 w
1045 176

13 2
2
t 0 1 s
t 1 1 e
860 87
