15

4 4
12
r 2 0 n
h 1 1 n
t 3 1 w
h 2 3 n
f 2 1 w
h 1 0 s
r 1 0 n
f 3 2 n
f 0 2 n
t 3 1 n
r 1 3 s
r 3 1 w
5 10

9 9
20
t 7 0 n
h 2 2 e
t 3 5 n
t 7 5 n
h 0 4 e
f 3 0 e
h 6 3 s
f 8 5 s
f 0 0 e
t 2 8 s
f 0 3 w
h 0 6 n
f 0 2 e
r 2 0 s
h 3 6 e
t 5 7 n
h 1 8 n
r 3 0 s
f 2 0 s
t 6 5 n
6 7

7 4
3
h 6 2 n
r 3 1 s
t 3 2 s
8 5

10 2
8
r 3 0 e
f 6 0 w
r 2 0 w
h 8 0 s
f 8 0 s
f 9 1 s
h 5 1 w
t 4 0 w
6 8

9 4
17
t 8 2 n
t 2 2 w
r 6 2 n
r 7 2 w
f 8 2 s
f 2 0 n
r 8 1 e
h 5 3 s
h 2 3 w
f 2 0 n
f 8 3 w
f 8 1 n
h 0 3 s
h 5 0 w
t 2 2 s
f 1 2 s
r 1 1 s
9 8

4 1
18
r 3 0 w
t 3 0 n
t 0 0 w
t 0 0 s
h 3 0 n
r 3 0 w
h 1 0 s
t 0 0 e
t 3 0 e
f 3 0 s
r 1 0 w
f 0 0 s
f 3 0 n
t 3 0 s
t 2 0 s
h 0 0 n
f 3 0 e
t 0 0 w
3 8

10 8
4
r 2 3 e
t 4 0 w
r 6 7 s
h 1 5 e
6 8

8 8
10
t 5 3 n
h 6 5 w
r 2 6 e
t 0 5 w
h 1 0 w
h 0 3 w
f 6 0 s
r 1 6 n
f 0 1 e
r 4 0 w
10 5

4 7
1
f 2 2 e
6 6

7 4
15
f 1 3 s
t 6 0 n
r 2 2 e
r 0 1 e
t 4 1 n
t 2 1 w
r 4 1 w
h 5 3 w
r 4 3 e
r 5 2 e
t 2 1 n
h 5 3 e
h 5 3 n
t 0 3 s
f 6 3 n
2 7

7 3
16
t 5 1 s
h 5 0 w
h 3 1 w
t 6 0 s
r 3 2 w
t 3 1 w
t 2 1 w
h 4 0 w
t 0 1 n
f 2 0 e
t 3 1 s
h 0 0 s
h 1 2 s
f 5 0 e
t 0 2 e
t 3 1 e
5 7

5 8
4
f 0 4 e
r 1 2 e
r 3 4 w
t 4 0 w
2 9

3 3
7
f 2 2 e
t 1 0 s
f 2 1 s
t 1 2 n
f 1 2 s
h 1 1 w
f 2 0 n
4 8

9 9
10
t 1 7 e
f 2 3 s
t 5 6 n
t 6 1 s
r 5 3 n
f 5 1 e
t 7 0 n
h 4 7 s
t 6 2 e
f 3 1 w
6 5

3 6
8
r 0 1 s
t 2 0 w
h 1 5 s
r 1 1 n
h 0 5 n
f 1 1 s
r 1 5 n
r 0 3 e
8 7
