21

18 9
8
r 17 4 s
t 13 5 w
t 15 0 n
r 15 8 e
h 3 6 e
h 7 1 n
r 2 3 w
h 7 3 s
4 5

24 18
1
t 3 3 n
167 30

29 17
17
f 27 9 e
f 22 3 e
t 27 1 s
t 22 9 w
t 9 15 e
h 2 11 e
t 2 8 w
r 28 7 n
r 27 1 w
h 28 5 e
f 12 15 e
r 18 11 w
t 24 14 n
r 14 0 w
h 3 5 w
r 13 13 s
r 12 12 w
39 32

17 18
3
f 4 3 e
f 4 10 s
r 2 12 s
26 74

16 1
6
r 12 0 e
f 7 0 w
h 2 0 s
t 13 0 w
r 3 0 n
f 1 0 n
43 2

11 4
17
t 5 0 e
h 7 3 w
f 8 3 s
h 6 3 w
r 7 3 n
f 1 2 e
t 8 3 e
r 7 2 s
h 3 2 n
r 9 2 e
t 4 3 e
f 8 1 e
h 2 2 n
f 9 3 n
f 0 1 n
r 7 0 w
r 3 1 w
40 81

10 14
7
r 5 0 e
f 9 9 n
t 3 8 w
h 7 11 n
f 3 4 s
f 1 3 s
r 4 2 w
27 153

8 13
1
t 5 10 s
8 135

4 12
18
t 1 3 s
r 0 4 w
r 2 3 w
f 2 7 e
h 0 4 w
r 0 0 s
r 3 6 n
h 1 6 n
t 2 3 s
h 2 7 e
r 1 11 n
f 3 4 w
h 0 8 s
t 0 9 s
f 2 3 n
f 3 9 e
h 3 0 w
h 3 8 s
46 86

8 4
9
r 7 0 e
r 2 1 e
r 7 1 n
t 7 0 w
t 7 0 w
t 0 3 n
t 4 1 w
r 2 3 s
r 7 3 e
154 101

13 10
8
h 9 6 w
h 0 1 e
r 1 1 e
r 9 4 s
r 4 1 n
r 0 7 w
r 8 6 e
h 6 1 w
22 13

16 5
14
f 0 3 n
f 5 4 w
h 3 2 s
t 12 3 w
h 0 1 n
f 12 4 n
f 6 4 n
f 14 1 n
r 3 1 w
t 15 4 s
f 11 3 w
t 12 3 s
h 11 0 s
r 6 2 n
183 70

4 7
16
r 3 1 s
r 0 5 e
h 0 6 n
f 3 0 e
r 0 5 n
f 2 0 e
f 0 0 s
f 2 4 e
t 2 3 n
r 0 1 s
t 3 0 n
h 3 2 e
t 2 3 w
f 3 6 n
r 3 0 e
t 0 6 e
102 187

6 17
12
f 2 12 n
f 2 0 w
f 4 2 e
f 3 13 n
f 4 16 w
r 0 6 s
f 4 3 e
f 0 2 s
h 4 10 w
t 1 9 w
r 2 6 s
h 4 12 e
124 140

10 19
15
h 0 9 w
f 4 13 w
t 8 13 s
f 8 4 w
t 1 15 n
t 6 4 e
h 2 7 e
t 0 17 s
h 9 14 n
f 4 6 e
r 0 9 e
f 2 18 n
t 5 12 e
f 2 10 n
r 7 5 w
36 198

15 16
12
t 9 10 n
t 4 6 w
h 0 10 s
h 7 10 s
h 10 0 e
h 2 10 s
h 4 12 e
f 12 7 s
h 5 4 n
f 8 8 s
h 5 15 s
f 4 2 n
50 16

13 16
18
f 1 11 w
h 9 5 n
h 9 14 n
h 11 4 s
h 5 12 n
t 8 9 e
r 6 4 s
t 8 4 e
t 1 12 n
r 3 2 e
f 5 1 w
f 8 15 w
h 8 7 s
f 12 5 s
f 7 6 e
r 1 13 n
f 10 5 w
f 7 10 w
175 182

5 2
4
t 4 1 w
h 4 0 w
f 3 0 n
t 1 1 s
109 33

17 8
5
f 12 2 e
r 14 2 n
h 4 0 w
f 7 4 e
f 15 5 s
118 134

24 1
8
f 19 0 s
h 13 0 w
t 2 0 w
t 3 0 w
h 17 0 w
h 7 0 n
t 5 0 s
t 12 0 e
163 170

26 2
10
t 17 1 e
f 5 1 w
t 24 0 s
r 20 1 w
t 2 0 e
t 1 1 s
f 25 0 n
f 17 1 e
r 17 1 w
h 7 1 n
37 15
